…
    Durée sur notre machine (pour 150 milles calculs de distances): ~30 secondes

Enfin, nous filtrons les paires habitant-stations qui étaient à plus de
500m à pieds:

    tbl(con, "rides_stations_dist") |> 
        filter(dist_pieds <= 500) |> 
        collect()

    ## # A tibble: 57,996 × 8
    ##    id                  lng   lat stop_id stop_name latitude longitude dist_pieds
    ##    <chr>             <dbl> <dbl> <chr>   <chr>        <dbl>     <dbl>      <dbl>
    ##  1 00150dfa-e11c-4… -0.297  49.1 taso02  Tageret       49.1    -0.297        472
    ##  2 00150dfa-e11c-4… -0.297  49.1 ltou02  Les Tour…     49.1    -0.300        343
    ##  3 00150dfa-e11c-4… -0.297  49.1 COM_lt… Les Tour…     49.1    -0.300        345
    ##  4 00150dfa-e11c-4… -0.297  49.1 ARCOM@… Tageret       49.1    -0.297        476
    ##  5 00150dfa-e11c-4… -0.297  49.1 ltou01  Les Tour…     49.1    -0.300        347
    ##  6 002ef466-ca69-4… -0.543  49.2 mepa02  Mesnil P…     49.2    -0.546        319
    ##  7 002ef466-ca69-4… -0.543  49.2 COM_me… Mesnil P…     49.2    -0.546        309
    ##  8 0033fadb-fc0c-4… -0.350  49.2 COM_ca… Cavelier      49.2    -0.351        333
    ##  9 0033fadb-fc0c-4… -0.350  49.2 COM_pi… Pierre H…     49.2    -0.347        299
    ## 10 0033fadb-fc0c-4… -0.350  49.2 COM_ph… Pierre H…     49.2    -0.347        239
    ## # ℹ 57,986 more rows
…
